Principles of Data Visualization in R Workshop: Introduction to tidyverse
…
filter() is a literal filter for you to only get data that fits a certain condition. The filter function takes 2 arguments.

Data frame

Truth condition

You should place the data you want to use and place the truth condition second. Note that the truth condition can include multiple things. To make your code clear, always wrap around chunks of condition in parenthesis. For example, the code filter(data,((a==4&b==2)&(a==2|b==3))|(a==0|b==0)) will give me data that fits either (a==4&b==2) & (a==2|b==3) or (a==0|b==0). Making your filter condition clear is extremely important for readability.

For example, we can select people who answered Maybe to the workshop question in the survey:

filter(data,
       workshop=="Maybe" & gpa>3.5)

## # A tibble: 128 x 6
##    workshop   age county                  social cohort           gpa
##    <chr>    <dbl> <chr>                   <chr>  <chr>          <dbl>
##  1 Maybe       24 Cook county, IL         SGGSAC Sociology       3.58
##  2 Maybe       25 Cuyahoga County, OH     SGGSAC Anthropology    3.79
##  3 Maybe       25 Cuyahoga County, OH     SGGSAC Anthropology    3.69
##  4 Maybe       25 Cuyahoga County, OH     SGGSAC Anthropology    3.52
##  5 Maybe       28 Orange county           SUCSAC Economics       3.83
##  6 Maybe       33 Hillsborough County, FL SGGSAC Psych/poli sci  3.54
##  7 Maybe       25 Cuyahoga County, OH     SGGSAC Anthropology    3.67
##  8 Maybe       24 Cook county, IL         SGGSAC Sociology       3.96
##  9 Maybe       33 Hillsborough County, FL SGGSAC Psych/poli sci  4.15
## 10 Maybe       24 Cook county, IL         SGGSAC Sociology       3.52
## #  with 118 more rows

%in%

Sometimes if you have a vector of things that you want filter to match with the or(|) condition, you can use %in% and the vector you want to match. For example, we can select people who think the social committees name is either SUCSAC or VANESSA:

filter(data,
       social %in% c("SUCSAC","VANESSA"))

## # A tibble: 459 x 6
##    workshop   age county            social  cohort         gpa
##    <chr>    <dbl> <chr>             <chr>   <chr>        <dbl>
##  1 Yes         27 Racine County, WI VANESSA Psychology    3.88
##  2 Yes         26 Dekalb, GA        VANESSA Anthropology  3.41
##  3 Yes         NA Arlington, VA     VANESSA Sociology     3.39
##  4 Yes         27 Racine County, WI VANESSA Psychology    3.39
##  5 Yes         NA NY                SUCSAC  Psychology    3.77
##  6 Maybe       28 Orange county     SUCSAC  Economics     3.83
##  7 Yes         35 Cook County, IL   SUCSAC  Economics     3.44
##  8 Yes         35 Cook County, IL   SUCSAC  Economics     3.63
##  9 Yes         27 Racine County, WI VANESSA Psychology    3.45
## 10 Yes         NA NY                SUCSAC  Psychology    3.83
## #  with 449 more rows

arrange(df , vars...)

arrange() lets you rearrange the order of your observations based on the order of a variable(s). By default, it arranges the variable ascendingly. If you would like it to be arranged descendingly, you need to wrap the variable with desc(). arrange() rearranges based on the order of the variable you gave. For example, arrange(data,age,desc(gpa)) would first arrange the data set from the youngest to oldest, and then for people of the same age, it arranges the data from the highest GPA to the lowest GPA.

Recall that if your string column is set to factors, you can also arrange it by the alphabetical order. The priority of ordering is set by how you write your arguments. Arrange is most useful when you need to see extreme values using head() or need to do sequential operations.

For example, we can arrange the data set by cohort alphabetically and gpa descendingly:

data %>% 
  arrange(as.factor(cohort),
          desc(gpa))

## # A tibble: 1,976 x 6
##    workshop   age county               social cohort         gpa
##    <chr>    <dbl> <chr>                <chr>  <chr>        <dbl>
##  1 Yes         24 San Diego county, CA SGGSAC Anthropology  4.39
##  2 Yes         24 Orange County, CA    SGGSAC Anthropology  4.30
##  3 Maybe       25 Cuyahoga County, OH  SGGSAC Anthropology  4.21
##  4 Yes         24 Orange County, CA    SGGSAC Anthropology  4.20
##  5 Yes         24 San Diego county, CA SGGSAC Anthropology  4.20
##  6 Yes         24 Orange County, CA    SGGSAC Anthropology  4.18
##  7 Yes         24 Orange County, CA    SGGSAC Anthropology  4.17
##  8 Yes         45 Cook countywid       SGGSAC Anthropology  4.16
##  9 Yes         24 Orange County, CA    SGGSAC Anthropology  4.15
## 10 Yes         45 Cook countywid       SGGSAC Anthropology  4.14
## #  with 1,966 more rows
…
Bonus If you want the operation to happen row by row (you may need to do this when geocoding), you can use a special version of group_by() called rowwise(). rowwise() imposes a grouping structure so that each row is in its own group.

select(df, cols)/rename(df, new_col=old_col)

seelct() and rename() are used so you can tidy up your data. In select(), you put your data as the first argument, and the rest of the arguments are just variables you want to keep. If you want to rename some variables, you just need to write select(data,newvar1=oldvar1,...). On the other hand, if you just want to rename some variables, you only need to write rename(data,newvar1=oldvar1,...). The difference is that select() only gives you back the variables you specified while rename() gives you back your entire data frame.

In the case where you want to use select() to reorder your data frame, you just need to specify the ones you want in the order and call everything() as your last argument. If instead of selecting the columns you want, you need to kick out of columns you do not want, you can just add a minus sign before the variable such as select(-col1)

For example, if I want to select workshop, gpa, and age and change workshop to participate, I can write:

data %>%
  select(participate=workshop,
         gpa, age)

## # A tibble: 1,976 x 3
##    participate   gpa   age
##    <chr>       <dbl> <dbl>
##  1 Yes          3.81    24
##  2 Yes          3.23    23
##  3 Yes          3.34    23
##  4 Maybe        3.58    24
##  5 Yes          3.63    23
##  6 Yes          3.88    27
##  7 Yes          3.68    31
##  8 Yes          3.41    26
##  9 Yes          4.00    35
## 10 Yes          3.87    24
## #  with 1,966 more rows
…
separate(df, col, into, sep)

separate() is used for you to split values in a single column into multiple columns. The into argument takes on a vector of texts for you to specify the names of the new columns that you want to create from the original column. sep specifies what you want are to use as the separator for the column. For example, in the data we used before, people answered a county and state, which should be separated by a comma. We can thus use separate to split this column into county and state:

data %>% 
  separate(county,
                c("county","state"),
                sep=", ")

## Warning: Expected 2 pieces. Missing pieces filled with `NA` in 430 rows
## [16, 17, 26, 32, 40, 41, 48, 59, 65, 67, 70, 71, 74, 78, 79, 84, 91, 92,
## 96, 99, ...].

## # A tibble: 1,976 x 9
##    workshop   age county    state    social cohort      gpa muage groupdiff
##    <chr>    <dbl> <chr>     <chr>    <chr>  <chr>     <dbl> <dbl>     <dbl>
##  1 Yes         24 Orange C CA       SGGSAC Anthropo  3.81  26.1     0.260
##  2 Yes         23 Franklin OH       SGGSAC Economics  3.23  26.9    -0.501
##  3 Yes         23 Franklin OH       SGGSAC Economics  3.34  26.9    -0.501
##  4 Maybe       24 Cook cou IL       SGGSAC Sociology  3.58  25.7     0.658
##  5 Yes         23 Knoxville Tennesse SGGSAC Politica  3.63  23       3.37 
##  6 Yes         27 Racine C WI       VANES Psycholo  3.88  25.4     0.944
##  7 Yes         31 <NA>      <NA>     SGGSAC Sociology  3.68  25.7     0.658
##  8 Yes         26 Dekalb    GA       VANES Anthropo  3.41  26.1     0.260
##  9 Yes         35 Hyde Park IL       SGGSAC Economics  4.00  26.9    -0.501
## 10 Yes         24 York Cou South C SGGSAC History    3.87  24       2.37 
## #  with 1,966 more rows

unite(df, new_col, cols, sep)

unite() is the exact opposite of separate. It takes multiple columns and concatenate them into one column using the same arguments. For example, if I want to concatenate workshop and social into a variable called new with / as my separator, I will write:

data %>% 
  unite("new",
                c(workshop, social),
                sep="_")

## # A tibble: 1,976 x 7
##    new          age county              cohort          gpa muage groupdiff
##    <chr>      <dbl> <chr>               <chr>         <dbl> <dbl>     <dbl>
##  1 Yes_SGGSAC    24 Orange County, CA   Anthropology   3.81  26.1     0.260
##  2 Yes_SGGSAC    23 Franklin county, OH Economics      3.23  26.9    -0.501
##  3 Yes_SGGSAC    23 Franklin county, OH Economics      3.34  26.9    -0.501
##  4 Maybe_SGG    24 Cook county, IL     Sociology      3.58  25.7     0.658
##  5 Yes_SGGSAC    23 Knoxville, Tennesse Political Sc  3.63  23       3.37 
##  6 Yes_VANES    27 Racine County, WI   Psychology     3.88  25.4     0.944
##  7 Yes_SGGSAC    31 <NA>                Sociology      3.68  25.7     0.658
##  8 Yes_VANES    26 Dekalb, GA          Anthropology   3.41  26.1     0.260
##  9 Yes_SGGSAC    35 Hyde Park, IL       Economics      4.00  26.9    -0.501
## 10 Yes_SGGSAC    24 York County, South History        3.87  24       2.37 
## #  with 1,966 more rows
…
